fir.vcd
$date
   Mon Oct 23 08:44:12 2023
$end
$version
  2022.1
$end
$timescale
  1ps
$end
$scope module fir_tb $end
$var wire 1 ! awready $end
$var wire 1 " wready $end
$var reg 1 # awvalid $end
$var reg 12 $ awaddr [11:0] $end
$var reg 1 % wvalid $end
$var reg 32 & wdata [31:0] $end
$var wire 1 ' arready $end
$var reg 1 ( rready $end
$var reg 1 ) arvalid $end
$var reg 12 * araddr [11:0] $end
$var wire 1 + rvalid $end
$var wire 32 , rdata [31:0] $end
$var reg 1 - ss_tvalid $end
$var reg 32 . ss_tdata [31:0] $end
$var reg 1 / ss_tlast $end
$var wire 1 0 ss_tready $end
$var reg 1 1 sm_tready $end
$var wire 1 2 sm_tvalid $end
$var wire 32 3 sm_tdata [31:0] $end
$var wire 1 4 sm_tlast $end
$var reg 1 5 axis_clk $end
$var reg 1 6 axis_rst_n $end
$var wire 4 7 tap_WE [3:0] $end
$var wire 1 8 tap_EN $end
$var wire 32 9 tap_Di [31:0] $end
$var wire 12 : tap_A [11:0] $end
$var wire 32 ; tap_Do [31:0] $end
$var wire 4 < data_WE [3:0] $end
$var wire 1 = data_EN $end
$var wire 32 > data_Di [31:0] $end
$var wire 12 ? data_A [11:0] $end
$var wire 32 @ data_Do [31:0] $end
$var reg 1 A error_coef $end
$var reg 32 B data_length [31:0] $end
$var integer 32 C Din [31:0] $end
$var integer 32 D golden [31:0] $end
$var integer 32 E input_data [31:0] $end
$var integer 32 F golden_data [31:0] $end
$var integer 32 G m [31:0] $end
$var integer 32 H i [31:0] $end
$var integer 32 I k [31:0] $end
$var reg 1 J error $end
$var integer 32 K timeout [31:0] $end
$scope module fir_DUT $end
$var wire 1 ! awready $end
$var wire 1 " wready $end
$var wire 1 L awvalid $end
$var wire 12 M awaddr [11:0] $end
$var wire 1 N wvalid $end
$var wire 32 O wdata [31:0] $end
$var wire 1 ' arready $end
$var wire 1 P rready $end
$var wire 1 Q arvalid $end
$var wire 12 R araddr [11:0] $end
$var wire 1 + rvalid $end
$var wire 32 , rdata [31:0] $end
$var wire 1 S ss_tvalid $end
$var wire 32 T ss_tdata [31:0] $end
$var wire 1 U ss_tlast $end
$var wire 1 0 ss_tready $end
$var wire 1 V sm_tready $end
$var wire 1 2 sm_tvalid $end
$var wire 32 3 sm_tdata [31:0] $end
$var wire 1 4 sm_tlast $end
$var wire 4 7 tap_WE [3:0] $end
$var wire 1 8 tap_EN $end
$var wire 32 9 tap_Di [31:0] $end
$var wire 12 : tap_A [11:0] $end
$var wire 32 ; tap_Do [31:0] $end
$var wire 4 < data_WE [3:0] $end
$var wire 1 = data_EN $end
$var wire 32 > data_Di [31:0] $end
$var wire 12 ? data_A [11:0] $end
$var wire 32 @ data_Do [31:0] $end
$var wire 1 W axis_clk $end
$var wire 1 X axis_rst_n $end
$var reg 4 Y \genblk1.ctr  [3:0] $end
$var reg 1 Z \genblk1.ss_tready_r  $end
$var reg 3 [ \genblk1.stt_data_n  [2:0] $end
$var reg 3 \ \genblk1.stt_data_c  [2:0] $end
$var reg 32 ] \genblk1.rdata_r  [31:0] $end
$var reg 1 ^ \genblk1.arready_r  $end
$var reg 1 _ \genblk1.rvalid_r  $end
$var reg 1 ` \genblk1.awready_r  $end
$var reg 1 a \genblk1.wready_r  $end
$var reg 4 b \genblk1.ctr_lite  [3:0] $end
$var wire 12 c \genblk1.raddr  [11:0] $end
$var wire 1 d \genblk1.ar_high  $end
$var wire 5 e \genblk1.index_coef_1  [4:0] $end
$var wire 5 f \genblk1.index_coef_2  [4:0] $end
$var reg 32 g \genblk1.result  [31:0] $end
$var reg 1 h \genblk1.tvalid_r  $end
$var reg 10 i \genblk1.len  [9:0] $end
$var integer 32 j \genblk1.i  [31:0] $end
$upscope $end
$scope module tap_RAM $end
$var wire 1 k CLK $end
$var wire 4 7 WE [3:0] $end
$var wire 1 8 EN $end
$var wire 32 9 Di [31:0] $end
$var wire 32 ; Do [31:0] $end
$var wire 12 : A [11:0] $end
$var reg 12 l r_A [11:0] $end
$upscope $end
$scope module data_RAM $end
$var wire 1 m CLK $end
$var wire 4 < WE [3:0] $end
$var wire 1 = EN $end
$var wire 32 > Di [31:0] $end
$var wire 32 @ Do [31:0] $end
$var wire 12 ? A [11:0] $end
$var reg 12 n r_A [11:0] $end
$upscope $end
$scope task config_write $end
$var reg 12 o addr [11:0] $end
$var reg 32 p data [31:0] $end
$upscope $end
$scope task config_read_check $end
$var reg 12 q addr [11:0] $end
$var reg 32 r exp_data [31:0] $end
$var reg 32 s mask [31:0] $end
$upscope $end
$scope task ss $end
$var reg 32 t in1 [31:0] $end
$upscope $end
$scope task sm $end
$var reg 32 u in2 [31:0] $end
$var reg 32 v pcnt [31:0] $end
$upscope $end
$upscope $end
$enddefinitions $end
#0
$dumpvars
0!
0"
0#
bx $
0%
bx &
0'
x(
x)
bx *
0+
b0 ,
0-
bx .
x/
00
11
02
b0 3
04
05
06
b0 7
08
b0 9
b0 :
b0 ;
b1111 <
1=
b0 >
b111111111000 ?
bx @
0A
b1001011000 B
b11111111111111111011000111100000 C
b11111111111111111011000111100001 D
b1 E
b1 F
b1001011000 G
bx H
bx I
0J
b11110100001001000000 K
0L
bx M
0N
bx O
xP
xQ
bx R
0S
bx T
xU
1V
0W
0X
b0 Y
0Z
b0 [
b0 \
b0 ]
0^
0_
0`
0a
b0 b
bx c
0d
b0 e
b0 f
b0 g
0h
b0 i
b10000000 j
0k
bx l
0m
bx n
b10000 o
b1001011000 p
bx q
bx r
bx s
bx t
bx u
bx v
$end
#5000
1#
b10000 $
1%
b1001011000 &
15
16
b1111 7
08
b0 9
b0 ;
bx @
b11110100001000111111 K
1L
b10000 M
1N
b1001011000 O
1W
1X
0Z
b0 \
0h
b0 i
1k
b0 l
1m
b111111111000 n
#10000
05
0W
0k
0m
#15000
1!
1"
1-
b1 .
0/
15
08
b1001011000 9
b0 >
b0 H
b11110100001000111110 K
1S
b1 T
0U
1W
0Z
b0 [
b0 \
1`
1a
0h
b0 i
1k
b0 l
1m
b111111111000 n
b1 t
#20000
05
0W
0k
0m
#25000
0!
0"
0#
0%
15
b0 7
08
b0 9
b0 :
b111111111100 ?
b11110100001000111101 K
0L
0N
1W
0Z
b0 [
b0 \
0`
0a
b1 b
b0 e
0h
b1001011000 i
1k
b0 l
1m
b111111111000 n
#30000
05
0W
0k
0m
#35000
0#
0%
15
bx @
b0 I
b11110100001000111100 K
1W
0Z
b0 \
0h
b1001011000 i
1k
b0 l
1m
b111111111100 n
b100000 o
b0 p
#40000
05
0W
0k
0m
#45000
1#
b100000 $
1%
b0 &
15
b1111 7
08
b0 9
b11110100001000111011 K
1L
b100000 M
1N
b0 O
1W
0Z
b0 \
0h
b1001011000 i
1k
b0 l
1m
b111111111100 n
#50000
05
0W
0k
0m
#55000
1!
1"
15
18
b0 9
b0 :
bx ;
b11110100001000111010 K
1W
0Z
b0 \
1`
1a
0h
b1001011000 i
1k
b0 l
1m
b111111111100 n
#60000
05
0W
0k
0m
#65000
0!
0"
0#
0%
15
b0 7
08
b0 9
b0 :
b0 ;
b0 ?
b1 I
b11110100001000111001 K
0L
0N
1W
0Z
b0 [
b0 \
0`
0a
b10 b
b0 e
0h
b1001011000 i
1k
b0 l
1m
b111111111100 n
b100100 o
b11111111111111111111111111110110 p
#70000
05
0W
0k
0m
#75000
1#
b100100 $
1%
b11111111111111111111111111110110 &
15
b1111 7
08
b0 9
b0 @
b11110100001000111000 K
1L
b100100 M
1N
b11111111111111111111111111110110 O
1W
0Z
b0 \
0h
b1001011000 i
1k
b0 l
1m
b0 n
#80000
05
0W
0k
0m
#85000
1!
1"
15
18
b11111111111111111111111111110110 9
b100 :
b0 ;
b11110100001000110111 K
1W
0Z
b0 \
1`
1a
0h
b1001011000 i
1k
b0 l
1m
b0 n
#90000
05
0W
0k
0m
#95000
0!
0"
0#
0%
15
b0 7
08
b0 9
b0 :
b0 ;
b100 ?
b10 I
b11110100001000110110 K
0L
0N
1W
0Z
b0 [
b0 \
0`
0a
b11 b
b0 e
0h
b1001011000 i
1k
b100 l
1m
b0 n
b101000 o
b11111111111111111111111111110111 p
#100000
05
0W
0k
0m
#105000
1#
b101000 $
1%
b11111111111111111111111111110111 &
15
b1111 7
08
b0 9
b0 ;
b0 @
b11110100001000110101 K
1L
b101000 M
1N
b11111111111111111111111111110111 O
1W
0Z
b0 \
0h
b1001011000 i
1k
b0 l
1m
b100 n
#110000
05
0W
0k
0m
#115000
1!
1"
15
18
b11111111111111111111111111110111 9
b1000 :
b0 ;
b11110100001000110100 K
1W
0Z
b0 \
1`
1a
0h
b1001011000 i
1k
b0 l
1m
b100 n
#120000
05
0W
0k
0m
#125000
0!
0"
0#
0%
15
b0 7
08
b0 9
b0 :
b0 ;
b1000 ?
b11 I
b11110100001000110011 K
0L
0N
1W
0Z
b0 [
b0 \
0`
0a
b100 b
b0 e
0h
b1001011000 i
1k
b1000 l
1m
b100 n
b101100 o
b10111 p
#130000
05
0W
0k
0m
#135000
1#
b101100 $
1%
b10111 &
15
b1111 7
08
b0 9
b0 ;
b0 @
b11110100001000110010 K
1L
b101100 M
1N
b10111 O
1W
0Z
b0 \
0h
b1001011000 i
1k
b0 l
1m
b1000 n
#140000
05
0W
0k
0m
#145000
1!
1"
15
18
b10111 9
b1100 :
b0 ;
b11110100001000110001 K
1W
0Z
b0 \
1`
1a
0h
b1001011000 i
1k
b0 l
1m
b1000 n
#150000
05
0W
0k
0m
#155000
0!
0"
0#
0%
15
b0 7
08
b0 9
b0 :
b0 ;
b1100 ?
b100 I
b11110100001000110000 K
0L
0N
1W
0Z
b0 [
b0 \
0`
0a
b101 b
b0 e
0h
b1001011000 i
1k
b1100 l
1m
b1000 n
b110000 o
b111000 p
#160000
05
0W
0k
0m
#165000
1#
b110000 $
1%
b111000 &
15
b1111 7
08
b0 9
b0 ;
b0 @
b11110100001000101111 K
1L
b110000 M
1N
b111000 O
1W
0Z
b0 \
0h
b1001011000 i
1k
b0 l
1m
b1100 n
#170000
05
0W
0k
0m
#175000
1!
1"
15
18
b111000 9
b10000 :
b0 ;
b11110100001000101110 K
1W
0Z
b0 \
1`
1a
0h
b1001011000 i
1k
b0 l
1m
b1100 n
#180000
05
0W
0k
0m
#185000
0!
0"
0#
0%
15
b0 7
08
b0 9
b0 :
b0 ;
b10000 ?
b101 I
b11110100001000101101 K
0L
0N
1W
0Z
b0 [
b0 \
0`
0a
b110 b
b0 e
0h
b1001011000 i
1k
b10000 l
1m
b1100 n
b110100 o
b111111 p
#190000
05
0W
0k
0m
#195000
1#
b110100 $
1%
b111111 &
15
b1111 7
08
b0 9
b0 ;
b0 @
b11110100001000101100 K
1L
b110100 M
1N
b111111 O
1W
0Z
b0 \
0h
b1001011000 i
1k
b0 l
1m
b10000 n
#200000
05
0W
0k
0m
#205000
1!
1"
15
18
b111111 9
b10100 :
b0 ;
b11110100001000101011 K
1W
0Z
b0 \
1`
1a
0h
b1001011000 i
1k
b0 l
1m
b10000 n
#210000
05
0W
0k
0m
#215000
0!
0"
0#
0%
15
b0 7
08
b0 9
b0 :
b0 ;
b10100 ?
b110 I
b11110100001000101010 K
0L
0N
1W
0Z
b0 [
b0 \
0`
0a
b111 b
b0 e
0h
b1001011000 i
1k
b10100 l
1m
b10000 n
b111000 o
b111000 p
#220000
05
0W
0k
0m
#225000
1#
b111000 $
1%
b111000 &
15
b1111 7
08
b0 9
b0 ;
b0 @
b11110100001000101001 K
1L
b111000 M
1N
b111000 O
1W
0Z
b0 \
0h
b1001011000 i
1k
b0 l
1m
b10100 n
#230000
05
0W
0k
0m
#235000
1!
1"
15
18
b111000 9
b11000 :
b0 ;
b11110100001000101000 K
1W
0Z
b0 \
1`
1a
0h
b1001011000 i
1k
b0 l
1m
b10100 n
#240000
05
0W
0k
0m
#245000
0!
0"
0#
0%
15
b0 7
08
b0 9
b0 :
b0 ;
b11000 ?
b111 I
b11110100001000100111 K
0L
0N
1W
0Z
b0 [
b0 \
0`
0a
b1000 b
b0 e
0h
b1001011000 i
1k
b11000 l
1m
b10100 n
b111100 o
b10111 p
#250000
05
0W
0k
0m
#255000
1#
b111100 $
1%
b10111 &
15
b1111 7
08
b0 9
b0 ;
b0 @
b11110100001000100110 K
1L
b111100 M
1N
b10111 O
1W
0Z
b0 \
0h
b1001011000 i
1k
b0 l
1m
b11000 n
#260000
05
0W
0k
0m
#265000
1!
1"
15
18
b10111 9
b11100 :
b0 ;
b11110100001000100101 K
1W
0Z
b0 \
1`
1a
0h
b1001011000 i
1k
b0 l
1m
b11000 n
#270000
05
0W
0k
0m
#275000
0!
0"
0#
0%
15
b0 7
08
b0 9
b0 :
b0 ;
b11100 ?
b1000 I
b11110100001000100100 K
0L
0N
1W
0Z
b0 [
b0 \
0`
0a
b1001 b
b0 e
0h
b1001011000 i
1k
b11100 l
1m
b11000 n
b1000000 o
b11111111111111111111111111110111 p
#280000
05
0W
0k
0m
#285000
1#
b1000000 $
1%
b11111111111111111111111111110111 &
15
b1111 7
08
b0 9
b0 ;
b0 @
b11110100001000100011 K
1L
b1000000 M
1N
b11111111111111111111111111110111 O
1W
0Z
b0 \
0h
b1001011000 i
1k
b0 l
1m
b11100 n
#290000
05
0W
0k
0m
#295000
1!
1"
15
18
b11111111111111111111111111110111 9
b100000 :
b0 ;
b11110100001000100010 K
1W
0Z
b0 \
1`
1a
0h
b1001011000 i
1k
b0 l
1m
b11100 n
#300000
05
0W
0k
0m
#305000
0!
0"
0#
0%
15
b0 7
08
b0 9
b0 :
b0 ;
b100000 ?
b1001 I
b11110100001000100001 K
0L
0N
1W
0Z
b0 [
b0 \
0`
0a
b1010 b
b0 e
0h
b1001011000 i
1k
b100000 l
1m
b11100 n
b1000100 o
b11111111111111111111111111110110 p
#310000
05
0W
0k
0m
#315000
1#
b1000100 $
1%
b11111111111111111111111111110110 &
15
b1111 7
08
b0 9
b0 ;
b0 @
b11110100001000100000 K
1L
b1000100 M
1N
b11111111111111111111111111110110 O
1W
0Z
b0 \
0h
b1001011000 i
1k
b0 l
1m
b100000 n
#320000
05
0W
0k
0m
#325000
1!
1"
15
18
b11111111111111111111111111110110 9
b100100 :
b0 ;
b11110100001000011111 K
1W
0Z
b0 \
1`
1a
0h
b1001011000 i
1k
b0 l
1m
b100000 n
#330000
05
0W
0k
0m
#335000
0!
0"
0#
0%
15
b0 7
08
b0 9
b0 :
b0 ;
b100100 ?
b1010 I
b11110100001000011110 K
0L
0N
1W
0Z
b0 [
b0 \
0`
0a
b1011 b
b0 e
0h
b1001011000 i
1k
b100100 l
1m
b100000 n
b1001000 o
b0 p
#340000
05
0W
0k
0m
#345000
1#
b1001000 $
1%
b0 &
15
b1111 7
08
b0 9
b0 ;
b0 @
b11110100001000011101 K
1L
b1001000 M
1N
b0 O
1W
0Z
b0 \
0h
b1001011000 i
1k
b0 l
1m
b100100 n
#350000
05
0W
0k
0m
#355000
1!
1"
15
18
b0 9
b101000 :
b0 ;
b11110100001000011100 K
1W
0Z
b0 \
1`
1a
0h
b1001011000 i
1k
b0 l
1m
b100100 n
#360000
05
0W
0k
0m
#365000
0!
0"
0#
0%
0)
15
b0 7
08
b0 9
b0 :
b0 ;
b101000 ?
b0 I
b11110100001000011011 K
0L
0N
0Q
1W
0Z
b0 [
b0 \
0`
0a
b1100 b
0d
b0 e
0h
b1001011000 i
1k
b101000 l
1m
b100100 n
b100000 q
b0 r
b11111111111111111111111111111111 s
#370000
05
0W
0k
0m
#375000
1(
1)
b100000 *
15
b0 ;
b0 @
b11110100001000011010 K
1P
1Q
b100000 R
1W
0Z
b0 \
b100000 c
0d
0h
b1001011000 i
1k
b0 l
1m
b101000 n
#380000
05
0W
0k
0m
#385000
1'
15
b11110100001000011001 K
1W
0Z
b0 \
b0 ]
1^
0_
1d
0h
b1001011000 i
1k
b0 l
1m
b101000 n
#390000
05
0W
0k
0m
#395000
0'
1+
15
b11110100001000011000 K
1W
0Z
b0 \
0^
1_
0d
0h
b1001011000 i
1k
b0 l
1m
b101000 n
#400000
05
0W
0k
0m
#405000
0)
0+
15
b1 I
b11110100001000010111 K
0Q
1W
0Z
b0 \
b0 ]
0_
0d
0h
b1001011000 i
1k
b0 l
1m
b101000 n
b100100 q
b11111111111111111111111111110110 r
b11111111111111111111111111111111 s
#410000
05
0W
0k
0m
#415000
1(
1)
b100100 *
15
b11110100001000010110 K
1Q
b100100 R
1W
0Z
b0 \
0_
b100100 c
0d
0h
b1001011000 i
1k
b0 l
1m
b101000 n
#420000
05
0W
0k
0m
#425000
1'
b11111111111111111111111111110110 ,
15
b11110100001000010101 K
1W
0Z
b0 \
b11111111111111111111111111110110 ]
1^
0_
1d
0h
b1001011000 i
1k
b0 l
1m
b101000 n
#430000
05
0W
0k
0m
#435000
0'
1+
15
b11110100001000010100 K
1W
0Z
b0 \
0^
1_
0d
0h
b1001011000 i
1k
b0 l
1m
b101000 n
#440000
05
0W
0k
0m
#445000
0)
0+
15
b10 I
b11110100001000010011 K
0Q
1W
0Z
b0 \
b11111111111111111111111111110110 ]
0_
0d
0h
b1001011000 i
1k
b0 l
1m
b101000 n
b101000 q
b11111111111111111111111111110111 r
b11111111111111111111111111111111 s
#450000
05
0W
0k
0m
#455000
1(
1)
b101000 *
15
b11110100001000010010 K
1Q
b101000 R
1W
0Z
b0 \
0_
b101000 c
0d
0h
b1001011000 i
1k
b0 l
1m
b101000 n
#460000
05
0W
0k
0m
#465000
1'
b11111111111111111111111111110111 ,
15
b11110100001000010001 K
1W
0Z
b0 \
b11111111111111111111111111110111 ]
1^
0_
1d
0h
b1001011000 i
1k
b0 l
1m
b101000 n
#470000
05
0W
0k
0m
#475000
0'
1+
15
b11110100001000010000 K
1W
0Z
b0 \
0^
1_
0d
0h
b1001011000 i
1k
b0 l
1m
b101000 n
#480000
05
0W
0k
0m
#485000
0)
0+
15
b11 I
b11110100001000001111 K
0Q
1W
0Z
b0 \
b11111111111111111111111111110111 ]
0_
0d
0h
b1001011000 i
1k
b0 l
1m
b101000 n
b101100 q
b10111 r
b11111111111111111111111111111111 s
#490000
05
0W
0k
0m
#495000
1(
1)
b101100 *
15
b11110100001000001110 K
1Q
b101100 R
1W
0Z
b0 \
0_
b101100 c
0d
0h
b1001011000 i
1k
b0 l
1m
b101000 n
#500000
05
0W
0k
0m
#505000
1'
b10111 ,
15
b11110100001000001101 K
1W
0Z
b0 \
b10111 ]
1^
0_
1d
0h
b1001011000 i
1k
b0 l
1m
b101000 n
#510000
05
0W
0k
0m
#515000
0'
1+
15
b11110100001000001100 K
1W
0Z
b0 \
0^
1_
0d
0h
b1001011000 i
1k
b0 l
1m
b101000 n
#520000
05
0W
0k
0m
#525000
0)
0+
15
b100 I
b11110100001000001011 K
0Q
1W
0Z
b0 \
b10111 ]
0_
0d
0h
b1001011000 i
1k
b0 l
1m
b101000 n
b110000 q
b111000 r
b11111111111111111111111111111111 s
#530000
05
0W
0k
0m
#535000
1(
1)
b110000 *
15
b11110100001000001010 K
1Q
b110000 R
1W
0Z
b0 \
0_
b110000 c
0d
0h
b1001011000 i
1k
b0 l
1m
b101000 n
#540000
05
0W
0k
0m
#545000
1'
b111000 ,
15
b11110100001000001001 K
1W
0Z
b0 \
b111000 ]
1^
0_
1d
0h
b1001011000 i
1k
b0 l
1m
b101000 n
#550000
05
0W
0k
0m
#555000
0'
1+
15
b11110100001000001000 K
1W
0Z
b0 \
0^
1_
0d
0h
b1001011000 i
1k
b0 l
1m
b101000 n
#560000
05
0W
0k
0m
#565000
0)
0+
15
b101 I
b11110100001000000111 K
0Q
1W
0Z
b0 \
b111000 ]
0_
0d
0h
b1001011000 i
1k
b0 l
1m
b101000 n
b110100 q
b111111 r
b11111111111111111111111111111111 s
#570000
05
0W
0k
0m
#575000
1(
1)
b110100 *
15
b11110100001000000110 K
1Q
b110100 R
1W
0Z
b0 \
0_
b110100 c
0d
0h
b1001011000 i
1k
b0 l
1m
b101000 n
#580000
05
0W
0k
0m
#585000
1'
b111111 ,
15
b11110100001000000101 K
1W
0Z
b0 \
b111111 ]
1^
0_
1d
0h
b1001011000 i
1k
b0 l
1m
b101000 n
#590000
05
0W
0k
0m
#595000
0'
1+
15
b11110100001000000100 K
1W
0Z
b0 \
0^
1_
0d
0h
b1001011000 i
1k
b0 l
1m
b101000 n
#600000
05
0W
0k
0m
#605000
0)
0+
15
b110 I
b11110100001000000011 K
0Q
1W
0Z
b0 \
b111111 ]
0_
0d
0h
b1001011000 i
1k
b0 l
1m
b101000 n
b111000 q
b111000 r
b11111111111111111111111111111111 s
#610000
05
0W
0k
0m
#615000
1(
1)
b111000 *
15
b11110100001000000010 K
1Q
b111000 R
1W
0Z
b0 \
0_
b111000 c
0d
0h
b1001011000 i
1k
b0 l
1m
b101000 n
#620000
05
0W
0k
0m
#625000
1'
b111000 ,
15
b11110100001000000001 K
1W
0Z
b0 \
b111000 ]
1^
0_
1d
0h
b1001011000 i
1k
b0 l
1m
b101000 n
#630000
05
0W
0k
0m
#635000
0'
1+
15
b11110100001000000000 K
1W
0Z
b0 \
0^
1_
0d
0h
b1001011000 i
1k
b0 l
1m
b101000 n
#640000
05
0W
0k
0m
#645000
0)
0+
15
b111 I
b11110100000111111111 K
0Q
1W
0Z
b0 \
b111000 ]
0_
0d
0h
b1001011000 i
1k
b0 l
1m
b101000 n
b111100 q
b10111 r
b11111111111111111111111111111111 s
#650000
05
0W
0k
0m
#655000
1(
1)
b111100 *
15
b11110100000111111110 K
1Q
b111100 R
1W
0Z
b0 \
0_
b111100 c
0d
0h
b1001011000 i
1k
b0 l
1m
b101000 n
#660000
05
0W
0k
0m
#665000
1'
b10111 ,
15
b11110100000111111101 K
1W
0Z
b0 \
b10111 ]
1^
0_
1d
0h
b1001011000 i
1k
b0 l
1m
b101000 n
#670000
05
0W
0k
0m
#675000
0'
1+
15
b11110100000111111100 K
1W
0Z
b0 \
0^
1_
0d
0h
b1001011000 i
1k
b0 l
1m
b101000 n
#680000
05
0W
0k
0m
#685000
0)
0+
15
b1000 I
b11110100000111111011 K
0Q
1W
0Z
b0 \
b10111 ]
0_
0d
0h
b1001011000 i
1k
b0 l
1m
b101000 n
b1000000 q
b11111111111111111111111111110111 r
b11111111111111111111111111111111 s
#690000
05
0W
0k
0m
#695000
1(
1)
b1000000 *
15
b11110100000111111010 K
1Q
b1000000 R
1W
0Z
b0 \
0_
b1000000 c
0d
0h
b1001011000 i
1k
b0 l
1m
b101000 n
#700000
05
0W
0k
0m
#705000
1'
b11111111111111111111111111110111 ,
15
b11110100000111111001 K
1W
0Z
b0 \
b11111111111111111111111111110111 ]
1^
0_
1d
0h
b1001011000 i
1k
b0 l
1m
b101000 n
#710000
05
0W
0k
0m
#715000
0'
1+
15
b11110100000111111000 K
1W
0Z
b0 \
0^
1_
0d
0h
b1001011000 i
1k
b0 l
1m
b101000 n
#720000
05
0W
0k
0m
#725000
0)
0+
15
b1001 I
b11110100000111110111 K
0Q
1W
0Z
b0 \
b11111111111111111111111111110111 ]
0_
0d
0h
b1001011000 i
1k
b0 l
1m
b101000 n
b1000100 q
b11111111111111111111111111110110 r
b11111111111111111111111111111111 s
#730000
05
0W
0k
0m
#735000
1(
1)
b1000100 *
15
b11110100000111110110 K
1Q
b1000100 R
1W
0Z
b0 \
0_
b1000100 c
0d
0h
b1001011000 i
1k
b0 l
1m
b101000 n
#740000
05
0W
0k
0m
#745000
1'
b11111111111111111111111111110110 ,
15
b11110100000111110101 K
1W
0Z
b0 \
b11111111111111111111111111110110 ]
1^
0_
1d
0h
b1001011000 i
1k
b0 l
1m
b101000 n
#750000
05
0W
0k
0m
#755000
0'
1+
15
b11110100000111110100 K
1W
0Z
b0 \
0^
1_
0d
0h
b1001011000 i
1k
b0 l
1m
b101000 n
#760000
05
0W
0k
0m
#765000
0)
0+
15
b1010 I
b11110100000111110011 K
0Q
1W
0Z
b0 \
b11111111111111111111111111110110 ]
0_
0d
0h
b1001011000 i
1k
b0 l
1m
b101000 n
b1001000 q
b0 r
b11111111111111111111111111111111 s
#770000
05
0W
0k
0m
#775000
1(
1)
b1001000 *
15
b11110100000111110010 K
1Q
b1001000 R
1W
0Z
b0 \
0_
b1001000 c
0d
0h
b1001011000 i
1k
b0 l
1m
b101000 n
#780000
05
0W
0k
0m
#785000
1'
b0 ,
15
b11110100000111110001 K
1W
0Z
b0 \
b0 ]
1^
0_
1d
0h
b1001011000 i
1k
b0 l
1m
b101000 n
#790000
05
0W
0k
0m
#795000
0'
1+
15
b11110100000111110000 K
1W
0Z
b0 \
0^
1_
0d
0h
b1001011000 i
1k
b0 l
1m
b101000 n
#800000
05
0W
0k
0m
#805000
0)
0+
15
b1011 I
b11110100000111101111 K
0Q
1W
0Z
b0 \
b0 ]
0_
0d
0h
b1001011000 i
1k
b0 l
1m
b101000 n
#810000
05
0W
0k
0m
#815000
0#
0%
15
b11110100000111101110 K
1W
0Z
b0 \
0_
0h
b1001011000 i
1k
b0 l
1m
b101000 n
b0 o
b1 p
#820000
05
0W
0k
0m
#825000
1#
b0 $
1%
b1 &
15
b1111 7
08
b0 9
b11110100000111101101 K
1L
b0 M
1N
b1 O
1W
0Z
b0 \
0_
0h
b1001011000 i
1k
b0 l
1m
b101000 n
#830000
05
0W
0k
0m
#835000
1!
1"
04
15
08
b1 9
b11110100000111101100 K
1W
0Z
b1 [
b0 \
0_
1`
1a
0h
b1001011000 i
1k
b0 l
1m
b101000 n
#840000
05
0W
0k
0m
#845000
0!
0"
0#
0%
10
04
15
b0 7
08
b0 9
b0 :
b1111 <
1=
b1 >
b0 ?
b11110100000111101011 K
0L
0N
1W
1Z
b10 [
b1 \
0_
0`
0a
b1101 b
b0 e
0h
b1001011000 i
1k
b0 l
1m
b101000 n
#850000
05
0W
0k
0m
#855000
1-
b10 .
00
15
b0 7
18
b0 :
b0 ;
b0 <
1=
b0 >
b0 ?
b1 @
b1 H
b11110100000111101010 K
b10 T
1W
0Z
b10 [
b10 \
0_
b0 b
b0 e
b0 g
0h
1k
b0 l
1m
b0 n
b10 t
#860000
05
0W
0k
0m
#865000
15
b101000 :
b100 ?
b11110100000111101001 K
1W
0Z
b10 [
b10 \
0_
b1 b
b11111 e
b1010 f
0h
1k
b0 l
1m
b0 n
#870000
05
0W
0k
0m
#875000
15
b100100 :
b0 ;
b1000 ?
b0 @
b11110100000111101000 K
1W
0Z
b10 [
b10 \
0_
b10 b
b11110 e
b1001 f
b0 g
0h
1k
b101000 l
1m
b100 n
#880000
05
0W
0k
0m
#885000
15
b100000 :
b11111111111111111111111111110110 ;
b1100 ?
b0 @
b11110100000111100111 K
1W
0Z
b10 [
b10 \
0_
b11 b
b11101 e
b1000 f
b0 g
0h
1k
b100100 l
1m
b1000 n
#890000
05
0W
0k
0m
#895000
15
b11100 :
b11111111111111111111111111110111 ;
b10000 ?
b0 @
b11110100000111100110 K
1W
0Z
b10 [
b10 \
0_
b100 b
b11100 e
b111 f
b0 g
0h
1k
b100000 l
1m
b1100 n
#900000
05
0W
0k
0m
#905000
15
b11000 :
b10111 ;
b10100 ?
b0 @
b11110100000111100101 K
1W
0Z
b10 [
b10 \
0_
b101 b
b11011 e
b110 f
b0 g
0h
1k
b11100 l
1m
b10000 n
#910000
05
0W
0k
0m
#915000
15
b10100 :
b111000 ;
b11000 ?
b0 @
b11110100000111100100 K
1W
0Z
b10 [
b10 \
0_
b110 b
b11010 e
b101 f
b0 g
0h
1k
b11000 l
1m
b10100 n
#920000
05
0W
0k
0m
#925000
15
b10000 :
b111111 ;
b11100 ?
b0 @
b11110100000111100011 K
1W
0Z
b10 [
b10 \
0_
b111 b
b11001 e
b100 f
b0 g
0h
1k
b10100 l
1m
b11000 n
#930000
05
0W
0k
0m
#935000
15
b1100 :
b111000 ;
b100000 ?
b0 @
b11110100000111100010 K
1W
0Z
b10 [
b10 \
0_
b1000 b
b11000 e
b11 f
b0 g
0h
1k
b10000 l
1m
b11100 n
#940000
05
0W
0k
0m
#945000
15
b1000 :
b10111 ;
b100100 ?
b0 @
b11110100000111100001 K
1W
0Z
b10 [
b10 \
0_
b1001 b
b10111 e
b10 f
b0 g
0h
1k
b1100 l
1m
b100000 n
#950000
05
0W
0k
0m
#955000
15
b100 :
b11111111111111111111111111110111 ;
b101000 ?
b0 @
b11110100000111100000 K
1W
0Z
b10 [
b10 \
0_
b1010 b
b10110 e
b1 f
b0 g
0h
1k
b1000 l
1m
b100100 n
#960000
05
0W
0k
0m
#965000
15
b0 :
b11111111111111111111111111110110 ;
b101100 ?
b0 @
b11110100000111011111 K
1W
0Z
b11 [
b10 \
0_
b1011 b
b10101 e
b0 f
b0 g
0h
1k
b100 l
1m
b101000 n
#970000
05
0W
0k
0m
#975000
11
12
15
b0 7
08
b0 :
b0 ;
b0 <
0=
b0 ?
b0 @
b0 I
b11110100000111011110 K
1W
b1 Y
0Z
b1 [
b11 \
0_
b1100 b
b0 e
b0 f
b0 g
1h
1k
b0 l
1m
b101100 n
b0 u
b0 v
#980000
05
0W
0k
0m
#985000
10
02
15
b0 7
08
b0 :
b1111 <
1=
b10 >
b100 ?
b1 @
b11110100000111011101 K
1W
1Z
b10 [
b1 \
0_
b0 e
0h
b1001010111 i
1k
b0 l
1m
b0 n
#990000
05
0W
0k
0m
#995000
1-
b11 .
00
11
15
b0 7
18
b100 :
b0 ;
b0 <
1=
b0 >
b0 ?
b10 @
b10 H
b1 I
b11110100000111011100 K
b11 T
1W
0Z
b10 [
b10 \
0_
b0 b
b1 e
b1 f
b0 g
0h
1k
b0 l
1m
b100 n
b11 t
b11111111111111111111111111110110 u
b1 v
#1000000
05
0W
0k
0m
